Electroglottography: Data collection and analysis
…
<br>

Open `code/02-extract-measures.praat` and run it.

---

# Let's read the data in R

```r
topo <- read_csv("data/derived/topo.csv")
topo
```

```
## # A tibble: 180 × 7
##    period_dur egg_min_1 degg_max degg_min egg_min_2 degg_max_rel degg_min_rel
##         <dbl>     <dbl>    <dbl>    <dbl>     <dbl>        <dbl>        <dbl>
##  1       6.01     0.445    0.446    0.449     0.451       0.194         0.594
##  2       6.28     0.451    0.453    0.454     0.457       0.244         0.543
##  3       5.36     0.457    0.458    0.460     0.463       0.153         0.536
##  4       7.02     0.463    0.464    0.466     0.470       0.186         0.434
##  5       6.38     0.470    0.470    0.474     0.476       0.0953        0.619
##  6       7.05     0.476    0.478    0.480     0.483       0.203         0.498
##  7       6.74     0.483    0.484    0.486     0.490       0.173         0.385
##  8       5.90     0.490    0.491    0.492     0.496       0.131         0.419
##  9       6.04     0.496    0.497    0.498     0.502       0.120         0.370
## 10       5.48     0.502    0.502    0.504     0.507       0.103         0.374
## # … with 170 more rows
```
…
